{
  "emperors":["Augustus","Tiberius","Caligula","Claudius","Nero","Galba","Otho","Vitellius","Vespasian","Titus","Domitian","Nerva","Trajan","Hadrian","Antoninus Pius","Marcus Aurelias","Lucius Verus","Commodus","Pertinax","Didius Julianus","Septimius Severus","Caracalla","Geta","Macrinus","Diadumenian","Elagabalus","Severus Alexander","Maximinus","Gordian","Pupienus","Balbinus","Philip","Trajan Decius","Hostilian","Trebonianus Gallus","Aemilian","Valerian","Gallienus","Claudius Gothicus","Quintillus","Aurelian","Tacitus","Florian","Probus","Carus","Numerian","Carinus","Diocletian","Maximian","Galerius","Constantine","Maxentius","Licinius","Constans","Vetranio","Jovian","Valentinian","Valens","Gratian","Theodosius","Arcadius","Honorius","Joannes","Marcian","Petronius Maximus","Avitus","Majorian","Libius Severus","Anthemius","Olybrius","Glycerius","Julius Nepos","Romulus Augustus","Leo","Zeno","Basiliscus","Anastasius"],
  "gods":["Abundantia","Acca Larentia","Acis","Aerecura","Aequitas","Asculapius","Aeternitas","Aion","Aius Locutius","Alernus","Angerona","Angitia","Anna Perenna","Annona","Antevorta","Apollo","Arimanius","Aura","Aurora","Averruncus","Bacchus","Bellona","Bona Dea","Bonus Eventus","Bubona","Caca","Cacus","Caelus","Camenae","Cardea","Carmenta","Carmentes","Carna","Ceres","Clementia","Cloacina","Concordia","Consus","Cupid","Cura","Cybele","Dea Dia","Dea Tacita","Decima","Devera","Diana","Diana Nemorensis","Dius Fidius","Disciplina","Dis Pater","Egeria","Empanda","Epona","Falacer","Fama","Fascinus","Dauna","Faunus","Faustitas","Februus","Febris","Fecunditas","Felicitas","Ferentina","Feronia","Fides","Flora","Fornax","Fontos","Fortuna","Fufluns","Furrina","Genius","Gratiae","Hercules","Hermaphroditus","Honos","Hora","Indiges","Intercidona","Inuus","Invidia","Janus","Juno","Jupiter","Justitia","Juturna","Juventas","Lares","Laverna","Latona","Levana","Letum","Liber","Libera","Liberalitas","Libertas","Libitina","Lua","Lucifer","Lucina","Luna","Lupercus","Lympha","Mana Genita","Manes","Mania","Mantus","Mars","Mater Matuta","Meditrina","Mefitis","Mellona","Mercury","Minerva","Mithras","Molae","Moneta","Mors","Morta","Murcia","Mutunus Tutunus","Naenia","Nascio","Necessitas","Nemesis","Neptune","Nerio","Neverita","Nixi","Nona","Nox","Ops","Orcus","Palatua","Pales","Parcae","Pax","Penates","Picumnus","Picus","Pietas","Pilumnus","Pluto","Poena","Pomona","Porrima","Portunes","Postverta","Priapus","Proserpina","Providentia","Pudicitia","Querquetulanae","Quirinus","Quiritis","Robigo","Roma","Rumina","Salacia","Salus","Sancus","Saturn","Securitas","Silvanus","Sol Invictus","Somnus","Soranus","Sors","Spes","Stata Mater","Sterquilinus","Suadela","Summanus","Sulis Minerva","Tellumo","Tempestas","Terra Mater","Terminus","Tiberinus","Tibertus","Tranquillitas","Trivia","Ubertas","Unxia","Vacuna","Vediovus","Venilia","Venti","Venus","Veritas","Verminus","Vertumnus","Vesta","Vica Pota","Victoria","Virbius","Virtus","Volturnus","Voluptas","Vulcan"],
  "numerals":["I","II","III","IV","V","VI","VII","VIII","IX","X","XI","XII","XIII","XIV","XV","XVI","XVII","XVIII","XIX","X"],
  "greek":["Alpha","Beta","Gamma","Delta","Epsilon","Zeta","Eta","Theta","Iota","Kappa","Lambda","Mu","Nu","Xi","Omicron","Pi","Rho","Sigma","Tau","Upsilon","Phi","Chi","Psi","Omega"],
  "zodiac":["Aquarius","Aries","Cancer","Capricornus","Gemini","Leo","Libra","Pisces","Sagittarius","Scorpius","Taurus","Virgo"]
}